\relax 
\catcode `"\active 
\citation{artigo_motion}
\citation{Marques}
\babel@aux{brazil}{}
\@writefile{toc}{\contentsline {section}{\numberline {1}Introdu\IeC {\c c}\IeC {\~a}o}{1}}
\@writefile{toc}{\contentsline {section}{\numberline {2}Aplica\IeC {\c c}\IeC {\~o}es}{1}}
\@writefile{toc}{\contentsline {section}{\numberline {3}M\IeC {\'e}todologias}{1}}
\@writefile{toc}{\contentsline {subsection}{\numberline {3.1}O Algoritmo Gen\IeC {\'e}tico}{1}}
\bibstyle{plain}
\bibdata{referencias}
\bibcite{artigo_motion}{1}
\bibcite{lopes}{2}
\bibcite{Marques}{3}
\@writefile{toc}{\contentsline {section}{\numberline {4}Conclus\IeC {\~a}o}{2}}
